Т’юторіал з R для психологів - 2 Приступаємо до аналізу
…
Поле NA має містити код, яким ви позначили пропущені дані у файлі. Якщо ви скористалися моєю порадою і пропущені значення кодували за допомогою пустих клітинок в таблиці Excel, це поле можна лишити незаповненим. Нарешті, встановлений прапорець First Row as Names повідомляє процедурі імпорту, що імена майбутніх змінних таблиці даних слід брати з першого рядку файлу Excel. Зверніть увагу на те, що у віконці Code Preview знаходиться декілька рядків команд на мові R, які власне і здійснюють імпортування даних. На їхньому прикладі ви почнете знайомитися з мовою R. Скопіюйте їх у текст вашої першої програми аналізу даних. Я трохи змінив зовнішній вигляд команд для кращої читабельності і додав коментарі (пояснювальний текст, що йде після символу #)– див. Фрагмент коду 1:

# Завантаження пакету для імпорту даних в форматі MS Excel
library(readxl)

# Імпорт даних з файлу
pss <- read_excel(
  path = "pss.xlsx", sheet = "Data View"
)

# Виведення вмісту об'єкту на екран
pss

# A tibble: 462 × 14
      id    b1    b2    b3    b4    b5    b6    b7    b8    b9   b10 gender
   <dbl> <dbl> <dbl> <dbl> <dbl> <dbl> <dbl> <dbl> <dbl> <dbl> <dbl>  <dbl>
 1     1     0     0     1     3     3     1     2     3     3     0      1
 2     2     2     1     4     2     1     1     2     0     3     2      2
 3     3     1     2     3     1     1     3     1     1     3     2      2
 4     4     1     2     2     3     3     3     1     1     4     2      2
 5     5     3     3     3     3     3     2     3     2     1     1      2
 6     6     0     1     4     3     4     0     3     3     0     3      1
 7     7     1     4     4     1     0     3     0     1     4     4      1
 8     8     2     1     2     3     2     1     2     2     2     1      1
 9     9     2     2     1     4     3     0     3     3     2     1      1
10    10     2     2     4     3     2     3     2     2     2     3      2
# … with 452 more rows, and 2 more variables: year <dbl>, fin_state <dbl>
…
